[
{
    "domain": ".youtube.com",
    "expirationDate": 1682218150.61393,
    "hostOnly": false,
    "httpOnly": false,
    "name": "__Secure-3PAPISID",
    "path": "/",
    "sameSite": "no_restriction",
    "secure": true,
    "session": false,
    "storeId": "0",
    "value": "6dZh4aPt676WJ7n0/AefRtv7zGAZFvKBvD",
    "id": 1
},
{
    "domain": ".youtube.com",
    "expirationDate": 1682218150.613721,
    "hostOnly": false,
    "httpOnly": true,
    "name": "__Secure-3PSID",
    "path": "/",
    "sameSite": "no_restriction",
    "secure": true,
    "session": false,
    "storeId": "0",
    "value": "8wfppEtTIrHJ7HwpFNT2Jv7KlqgR6kDXPu35kXavr33dTEmQ6R4V3MYJpOMeI7TnxRljxg.",
    "id": 2
},
{
    "domain": ".youtube.com",
    "expirationDate": 1650682185.342487,
    "hostOnly": false,
    "httpOnly": true,
    "name": "__Secure-3PSIDCC",
    "path": "/",
    "sameSite": "no_restriction",
    "secure": true,
    "session": false,
    "storeId": "0",
    "value": "AJi4QfErBhc4MTper_E1qW1MSw6KOwcl_Yz67Q5mfYKeoOMslrj0QXTMnr0M8DCGJ2PWAoZpWw",
    "id": 3
},
{
    "domain": ".youtube.com",
    "expirationDate": 1682218150.613849,
    "hostOnly": false,
    "httpOnly": false,
    "name": "APISID",
    "path": "/",
    "sameSite": "unspecified",
    "secure": false,
    "session": false,
    "storeId": "0",
    "value": "p_wmPvOSo56XQv-A/AJt__ATEGVX1BT7TH",
    "id": 4
},
{
    "domain": ".youtube.com",
    "expirationDate": 1682218150.61377,
    "hostOnly": false,
    "httpOnly": true,
    "name": "HSID",
    "path": "/",
    "sameSite": "unspecified",
    "secure": false,
    "session": false,
    "storeId": "0",
    "value": "AiEO8C_h7bnQ_6UIN",
    "id": 5
},
{
    "domain": ".youtube.com",
    "expirationDate": 1682218155.056874,
    "hostOnly": false,
    "httpOnly": true,
    "name": "LOGIN_INFO",
    "path": "/",
    "sameSite": "no_restriction",
    "secure": true,
    "session": false,
    "storeId": "0",
    "value": "AFmmF2swRAIgKoiHvA7H3W-ovApUOvmghB9HnJ8Qf1qPQGAwXj1Y8iUCIGw8gsvZe_JoZmrTCn92Vo0rWho4SHnfjF1-AKn_AGcZ:QUQ3MjNmeE82Nk9pbks1Qnd0N1o5cDVHcWRwYURaZWRNaW9FN0NERzRpSm1wRmtOd0FtVEMyWGRhRVJkNC1PeVVHMVNOWkZUYlhaRF9GUzF5WVpmU2VDZ1dJbkpXbEJHR0hsN3RqLXdyYmc3cjJNdDlJbFZkYWlkWXdOcHBWdmxjQWJnbmp1RU1JTFR1cXlKbTZMLS05SWkwTjhoWUxOWWZn",
    "id": 6
},
{
    "domain": ".youtube.com",
    "expirationDate": 1682218157,
    "hostOnly": false,
    "httpOnly": false,
    "name": "PREF",
    "path": "/",
    "sameSite": "unspecified",
    "secure": true,
    "session": false,
    "storeId": "0",
    "value": "tz=Asia.Jakarta",
    "id": 7
},
{
    "domain": ".youtube.com",
    "expirationDate": 1682218150.613892,
    "hostOnly": false,
    "httpOnly": false,
    "name": "SAPISID",
    "path": "/",
    "sameSite": "unspecified",
    "secure": true,
    "session": false,
    "storeId": "0",
    "value": "6dZh4aPt676WJ7n0/AefRtv7zGAZFvKBvD",
    "id": 8
},
{
    "domain": ".youtube.com",
    "expirationDate": 1682218150.613625,
    "hostOnly": false,
    "httpOnly": false,
    "name": "SID",
    "path": "/",
    "sameSite": "unspecified",
    "secure": false,
    "session": false,
    "storeId": "0",
    "value": "8wfppEtTIrHJ7HwpFNT2Jv7KlqgR6kDXPu35kXavr33dTEmQgFID4kbQN02v2AJshYHYSA.",
    "id": 9
},
{
    "domain": ".youtube.com",
    "expirationDate": 1650682185.342309,
    "hostOnly": false,
    "httpOnly": false,
    "name": "SIDCC",
    "path": "/",
    "sameSite": "unspecified",
    "secure": false,
    "session": false,
    "storeId": "0",
    "value": "AJi4QfET9LvJnvyKrHMbfeVrhmflo1KJs0Y0PoesOBFg4m_kait5Igx7XmhRK1dcCmfUjNJh6g",
    "id": 10
},
{
    "domain": ".youtube.com",
    "expirationDate": 1682218150.613809,
    "hostOnly": false,
    "httpOnly": true,
    "name": "SSID",
    "path": "/",
    "sameSite": "unspecified",
    "secure": true,
    "session": false,
    "storeId": "0",
    "value": "Avv2kKKLxZJ48EUE9",
    "id": 11
},
{
    "domain": ".youtube.com",
    "expirationDate": 1634698155.056824,
    "hostOnly": false,
    "httpOnly": true,
    "name": "VISITOR_INFO1_LIVE",
    "path": "/",
    "sameSite": "no_restriction",
    "secure": true,
    "session": false,
    "storeId": "0",
    "value": "p3T2veGTaxU",
    "id": 12
},
{
    "domain": ".youtube.com",
    "hostOnly": false,
    "httpOnly": true,
    "name": "YSC",
    "path": "/",
    "sameSite": "no_restriction",
    "secure": true,
    "session": true,
    "storeId": "0",
    "value": "ENkwYhd-ymY",
    "id": 13
}
]