[
{
    "domain": ".youtube.com",
    "expirationDate": 1682146854.276445,
    "hostOnly": false,
    "httpOnly": false,
    "name": "__Secure-3PAPISID",
    "path": "/",
    "sameSite": "no_restriction",
    "secure": true,
    "session": false,
    "storeId": "0",
    "value": "6OsNgvLoQPnTSRCL/AcADxI46gd7ySiwGR",
    "id": 1
},
{
    "domain": ".youtube.com",
    "expirationDate": 1682146854.27633,
    "hostOnly": false,
    "httpOnly": true,
    "name": "__Secure-3PSID",
    "path": "/",
    "sameSite": "no_restriction",
    "secure": true,
    "session": false,
    "storeId": "0",
    "value": "8gc2hj9xmsYDG383kXcujwMt5SpiPAmdrU4x01ps26uZtvbsFwo5WoUbBIkEZILMPWUG5w.",
    "id": 2
},
{
    "domain": ".youtube.com",
    "expirationDate": 1650610904.848447,
    "hostOnly": false,
    "httpOnly": true,
    "name": "__Secure-3PSIDCC",
    "path": "/",
    "sameSite": "no_restriction",
    "secure": true,
    "session": false,
    "storeId": "0",
    "value": "AJi4QfHm7sL66pkqX3FDItv95pv_kNaMfCUYLNNw452fP2HI4X6kc3D8J1MQznT3DNrxqaQgWw",
    "id": 3
},
{
    "domain": ".youtube.com",
    "expirationDate": 1682146854.276403,
    "hostOnly": false,
    "httpOnly": false,
    "name": "APISID",
    "path": "/",
    "sameSite": "unspecified",
    "secure": false,
    "session": false,
    "storeId": "0",
    "value": "mLerebdqZEARQidH/AxU6msim-K4eS0Ieg",
    "id": 4
},
{
    "domain": ".youtube.com",
    "expirationDate": 1682146854.276361,
    "hostOnly": false,
    "httpOnly": true,
    "name": "HSID",
    "path": "/",
    "sameSite": "unspecified",
    "secure": false,
    "session": false,
    "storeId": "0",
    "value": "ARbR-laC52Qn-Q3q-",
    "id": 5
},
{
    "domain": ".youtube.com",
    "expirationDate": 1682146887.329989,
    "hostOnly": false,
    "httpOnly": true,
    "name": "LOGIN_INFO",
    "path": "/",
    "sameSite": "no_restriction",
    "secure": true,
    "session": false,
    "storeId": "0",
    "value": "AFmmF2swRgIhAOCNrqb5PTlCT0JmN1KzAgE1Z6gr393KOZk1km0hVi4JAiEAuvTxzbjOLUwbUIIz4_GppCIDqIv7jHgtM8zAHQea5io:QUQ3MjNmeHhVMHc4ZXlYbU9VeWlxcFI1UEZvQlNwUk93V3JqLUZ5VmdET3l6UmFJTGlvXzZPY3V1dkZTdGdSb1NuLXVydVUxWkxrNFQwclA0aGVubnp3SC1UU1BCVTNCeTQ2LVZFdmk1VUhtb3pjWG5ZV0d4VXlITjlzaTdvaDN4cHozdFlpY29CVVFmWlMyVVNGVG1nUm96R1JLNDMtcEJB",
    "id": 6
},
{
    "domain": ".youtube.com",
    "expirationDate": 1682146890,
    "hostOnly": false,
    "httpOnly": false,
    "name": "PREF",
    "path": "/",
    "sameSite": "unspecified",
    "secure": true,
    "session": false,
    "storeId": "0",
    "value": "tz=Asia.Jakarta",
    "id": 7
},
{
    "domain": ".youtube.com",
    "expirationDate": 1682146854.276425,
    "hostOnly": false,
    "httpOnly": false,
    "name": "SAPISID",
    "path": "/",
    "sameSite": "unspecified",
    "secure": true,
    "session": false,
    "storeId": "0",
    "value": "6OsNgvLoQPnTSRCL/AcADxI46gd7ySiwGR",
    "id": 8
},
{
    "domain": ".youtube.com",
    "expirationDate": 1682146854.276263,
    "hostOnly": false,
    "httpOnly": false,
    "name": "SID",
    "path": "/",
    "sameSite": "unspecified",
    "secure": false,
    "session": false,
    "storeId": "0",
    "value": "8gc2hj9xmsYDG383kXcujwMt5SpiPAmdrU4x01ps26uZtvbsdlqFSqwp6e16UrygIJlUHw.",
    "id": 9
},
{
    "domain": ".youtube.com",
    "expirationDate": 1650610904.848354,
    "hostOnly": false,
    "httpOnly": false,
    "name": "SIDCC",
    "path": "/",
    "sameSite": "unspecified",
    "secure": false,
    "session": false,
    "storeId": "0",
    "value": "AJi4QfEKrm_VoltOLbS4WICrIEu2NbrleEqVOyvka2gjRfQH-U6ub5nogrZH4DlX8NMQGD_bVw",
    "id": 10
},
{
    "domain": ".youtube.com",
    "expirationDate": 1682146854.276383,
    "hostOnly": false,
    "httpOnly": true,
    "name": "SSID",
    "path": "/",
    "sameSite": "unspecified",
    "secure": true,
    "session": false,
    "storeId": "0",
    "value": "AIrSGC5nvYTeYFVC3",
    "id": 11
},
{
    "domain": ".youtube.com",
    "expirationDate": 1634626887.329933,
    "hostOnly": false,
    "httpOnly": true,
    "name": "VISITOR_INFO1_LIVE",
    "path": "/",
    "sameSite": "no_restriction",
    "secure": true,
    "session": false,
    "storeId": "0",
    "value": "GgAmKic2kzI",
    "id": 12
},
{
    "domain": ".youtube.com",
    "hostOnly": false,
    "httpOnly": true,
    "name": "YSC",
    "path": "/",
    "sameSite": "no_restriction",
    "secure": true,
    "session": true,
    "storeId": "0",
    "value": "zBTWJ7MIIzk",
    "id": 13
}
]