[
{
    "domain": ".youtube.com",
    "expirationDate": 1682210951.722735,
    "hostOnly": false,
    "httpOnly": false,
    "name": "__Secure-3PAPISID",
    "path": "/",
    "sameSite": "no_restriction",
    "secure": true,
    "session": false,
    "storeId": "0",
    "value": "u3Ol8GxihVlzIeKC/AnMxTL_q2bCn3Zs-2",
    "id": 1
},
{
    "domain": ".youtube.com",
    "expirationDate": 1682210957.619397,
    "hostOnly": false,
    "httpOnly": true,
    "name": "__Secure-3PSID",
    "path": "/",
    "sameSite": "no_restriction",
    "secure": true,
    "session": false,
    "storeId": "0",
    "value": "8wdo9kwYlNLhRRHrxyUTwXHTZgilPBJVgdd0wTYuvkND_HRUwU9g9Lq4ogjOOzqW2PLWmw.",
    "id": 2
},
{
    "domain": ".youtube.com",
    "expirationDate": 1650675094.916174,
    "hostOnly": false,
    "httpOnly": true,
    "name": "__Secure-3PSIDCC",
    "path": "/",
    "sameSite": "no_restriction",
    "secure": true,
    "session": false,
    "storeId": "0",
    "value": "AJi4QfEXSRse1UOFFMpoL7X_k1urjGoJPoyW-Ob91z0tGwnGVZKdxRi-HTwMGrjGsrX1aREq",
    "id": 3
},
{
    "domain": ".youtube.com",
    "expirationDate": 1682210951.722646,
    "hostOnly": false,
    "httpOnly": false,
    "name": "APISID",
    "path": "/",
    "sameSite": "unspecified",
    "secure": false,
    "session": false,
    "storeId": "0",
    "value": "Nux_NrwmPTlD9uBM/AHMI4DfSTMcCFi-yF",
    "id": 4
},
{
    "domain": ".youtube.com",
    "expirationDate": 1682210951.722552,
    "hostOnly": false,
    "httpOnly": true,
    "name": "HSID",
    "path": "/",
    "sameSite": "unspecified",
    "secure": false,
    "session": false,
    "storeId": "0",
    "value": "AXvM8Dl6T0LKlzLj1",
    "id": 5
},
{
    "domain": ".youtube.com",
    "expirationDate": 1682210958.256278,
    "hostOnly": false,
    "httpOnly": true,
    "name": "LOGIN_INFO",
    "path": "/",
    "sameSite": "no_restriction",
    "secure": true,
    "session": false,
    "storeId": "0",
    "value": "AFmmF2swRgIhANhWHYNyXjXlYEhKkuJN60--T5vM3Ra60Rztpm60DCo3AiEAwAEKUHdm-oFXuAi5e0PvBd5D68f4i8aGnlzVYTMSKMk:QUQ3MjNmenNiZVl3NUtDSmhBQW1nUEYtSjBlQXJxOFVCVDVYclcwdDMzbVFwYUV1UVVCSllLdzNwVHdablRVWEgwbTUyRnVEUDJ4NWJ3czdWb1lnMlR0SU9fYUN4WmFZcFNwN1hEdzRqeFF0SzlVSVdJR0NuS0htd3NsREFoNllDN1p3Sk45RG4xTmVJREItbE9pWGFNNnJ5dHQzV2oxbi1n",
    "id": 6
},
{
    "domain": ".youtube.com",
    "expirationDate": 1682210959,
    "hostOnly": false,
    "httpOnly": false,
    "name": "PREF",
    "path": "/",
    "sameSite": "unspecified",
    "secure": true,
    "session": false,
    "storeId": "0",
    "value": "tz=Asia.Jakarta",
    "id": 7
},
{
    "domain": ".youtube.com",
    "expirationDate": 1682210951.722692,
    "hostOnly": false,
    "httpOnly": false,
    "name": "SAPISID",
    "path": "/",
    "sameSite": "unspecified",
    "secure": true,
    "session": false,
    "storeId": "0",
    "value": "u3Ol8GxihVlzIeKC/AnMxTL_q2bCn3Zs-2",
    "id": 8
},
{
    "domain": ".youtube.com",
    "expirationDate": 1682210957.619293,
    "hostOnly": false,
    "httpOnly": false,
    "name": "SID",
    "path": "/",
    "sameSite": "unspecified",
    "secure": false,
    "session": false,
    "storeId": "0",
    "value": "8wdo9kwYlNLhRRHrxyUTwXHTZgilPBJVgdd0wTYuvkND_HRUYT-g-P_f1BpM_TnOWpXyRg.",
    "id": 9
},
{
    "domain": ".youtube.com",
    "expirationDate": 1650675094.916052,
    "hostOnly": false,
    "httpOnly": false,
    "name": "SIDCC",
    "path": "/",
    "sameSite": "unspecified",
    "secure": false,
    "session": false,
    "storeId": "0",
    "value": "AJi4QfEzqE2UEC04G0GJyTC0aDsSV8GQperSuziLvjF49duxJg7wbix1TN02_fPbgkemoKE7",
    "id": 10
},
{
    "domain": ".youtube.com",
    "expirationDate": 1682210951.722598,
    "hostOnly": false,
    "httpOnly": true,
    "name": "SSID",
    "path": "/",
    "sameSite": "unspecified",
    "secure": true,
    "session": false,
    "storeId": "0",
    "value": "AZ7-u9mbsw5ucr1rW",
    "id": 11
},
{
    "domain": ".youtube.com",
    "expirationDate": 1634690958.256162,
    "hostOnly": false,
    "httpOnly": true,
    "name": "VISITOR_INFO1_LIVE",
    "path": "/",
    "sameSite": "no_restriction",
    "secure": true,
    "session": false,
    "storeId": "0",
    "value": "9PGGUQTATEk",
    "id": 12
},
{
    "domain": ".youtube.com",
    "hostOnly": false,
    "httpOnly": true,
    "name": "YSC",
    "path": "/",
    "sameSite": "no_restriction",
    "secure": true,
    "session": true,
    "storeId": "0",
    "value": "-pGk0mj7o2g",
    "id": 13
}
]