[
{
    "domain": ".youtube.com",
    "expirationDate": 1682212518.786962,
    "hostOnly": false,
    "httpOnly": false,
    "name": "__Secure-3PAPISID",
    "path": "/",
    "sameSite": "no_restriction",
    "secure": true,
    "session": false,
    "storeId": "0",
    "value": "gwk-KyDSk4ud1ReP/Aif_J1ra-7jl4EQFV",
    "id": 1
},
{
    "domain": ".youtube.com",
    "expirationDate": 1682212518.786837,
    "hostOnly": false,
    "httpOnly": true,
    "name": "__Secure-3PSID",
    "path": "/",
    "sameSite": "no_restriction",
    "secure": true,
    "session": false,
    "storeId": "0",
    "value": "8wfTHzadb6qCLC6WKmKk-KuziG3jDAD2M-vVOaIUrdbV3RAd-Pq1-kQ5I24_jYhedA9X7g.",
    "id": 2
},
{
    "domain": ".youtube.com",
    "expirationDate": 1650676571.513264,
    "hostOnly": false,
    "httpOnly": true,
    "name": "__Secure-3PSIDCC",
    "path": "/",
    "sameSite": "no_restriction",
    "secure": true,
    "session": false,
    "storeId": "0",
    "value": "AJi4QfFgYwjMs5JSlwoYzj7TvWcxmJ1F7j2YgpwxUImV1zjlGgwT0xhckT7F73L3N-3GkKh1",
    "id": 3
},
{
    "domain": ".youtube.com",
    "expirationDate": 1682212518.78692,
    "hostOnly": false,
    "httpOnly": false,
    "name": "APISID",
    "path": "/",
    "sameSite": "unspecified",
    "secure": false,
    "session": false,
    "storeId": "0",
    "value": "QCOwFKDrNbrIyLmi/AhF9yKjA8oIXFpTzp",
    "id": 4
},
{
    "domain": ".youtube.com",
    "expirationDate": 1682212518.786878,
    "hostOnly": false,
    "httpOnly": true,
    "name": "HSID",
    "path": "/",
    "sameSite": "unspecified",
    "secure": false,
    "session": false,
    "storeId": "0",
    "value": "ANLgsQpw9E4kdKyOC",
    "id": 5
},
{
    "domain": ".youtube.com",
    "expirationDate": 1682212553.274504,
    "hostOnly": false,
    "httpOnly": true,
    "name": "LOGIN_INFO",
    "path": "/",
    "sameSite": "no_restriction",
    "secure": true,
    "session": false,
    "storeId": "0",
    "value": "AFmmF2swRgIhAMqkHzqPNmk_TQPySH6IwCKrWsX61An2yt1NWHj0vAqpAiEAvgsWxjNdxV88FXRhVOvOrIeIkLLHyVS8BhWFCNWemC8:QUQ3MjNmeUdhc3p5dlRkaTVhUmlJN1dYTGxHYkF4SWhobGx5QlgyMXhKd1ptY2FYNDRlcUo3TV9TRVhRelZQWUtiU3p2R3EyM0hNWEpUbWFGN1ZfdWoteU1LNy0xWHpnMGVmUE4wZTVOenFwN0R2QjJCVmppbjFUMm9iMUZRaGVHZ2dFRG44Smk3M01aZXZWNTRyTEQ5RDJEb2NUMmNyNzNn",
    "id": 6
},
{
    "domain": ".youtube.com",
    "expirationDate": 1682212555,
    "hostOnly": false,
    "httpOnly": false,
    "name": "PREF",
    "path": "/",
    "sameSite": "unspecified",
    "secure": true,
    "session": false,
    "storeId": "0",
    "value": "tz=Asia.Jakarta",
    "id": 7
},
{
    "domain": ".youtube.com",
    "expirationDate": 1682212518.786941,
    "hostOnly": false,
    "httpOnly": false,
    "name": "SAPISID",
    "path": "/",
    "sameSite": "unspecified",
    "secure": true,
    "session": false,
    "storeId": "0",
    "value": "gwk-KyDSk4ud1ReP/Aif_J1ra-7jl4EQFV",
    "id": 8
},
{
    "domain": ".youtube.com",
    "expirationDate": 1682212518.78673,
    "hostOnly": false,
    "httpOnly": false,
    "name": "SID",
    "path": "/",
    "sameSite": "unspecified",
    "secure": false,
    "session": false,
    "storeId": "0",
    "value": "8wfTHzadb6qCLC6WKmKk-KuziG3jDAD2M-vVOaIUrdbV3RAdQLQ8672IB-951g6pLh-bRQ.",
    "id": 9
},
{
    "domain": ".youtube.com",
    "expirationDate": 1650676571.513169,
    "hostOnly": false,
    "httpOnly": false,
    "name": "SIDCC",
    "path": "/",
    "sameSite": "unspecified",
    "secure": false,
    "session": false,
    "storeId": "0",
    "value": "AJi4QfFP3FtSsjrN3v9wQfAdg-QZR5xWHdb02vEEr59F1umtFBgAna0qKmUWTzt76XHAnL0n",
    "id": 10
},
{
    "domain": ".youtube.com",
    "expirationDate": 1682212518.786901,
    "hostOnly": false,
    "httpOnly": true,
    "name": "SSID",
    "path": "/",
    "sameSite": "unspecified",
    "secure": true,
    "session": false,
    "storeId": "0",
    "value": "AIFTuDf1bqUSL_9F1",
    "id": 11
},
{
    "domain": ".youtube.com",
    "expirationDate": 1634692553.274449,
    "hostOnly": false,
    "httpOnly": true,
    "name": "VISITOR_INFO1_LIVE",
    "path": "/",
    "sameSite": "no_restriction",
    "secure": true,
    "session": false,
    "storeId": "0",
    "value": "1oFszQRWzoo",
    "id": 12
},
{
    "domain": ".youtube.com",
    "hostOnly": false,
    "httpOnly": true,
    "name": "YSC",
    "path": "/",
    "sameSite": "no_restriction",
    "secure": true,
    "session": true,
    "storeId": "0",
    "value": "mkmDw-zhk-k",
    "id": 13
}
]