[
{
    "domain": ".youtube.com",
    "expirationDate": 1682213773.986225,
    "hostOnly": false,
    "httpOnly": false,
    "name": "__Secure-3PAPISID",
    "path": "/",
    "sameSite": "no_restriction",
    "secure": true,
    "session": false,
    "storeId": "0",
    "value": "5UQ-EpRF2wIjJXdN/AexYCFYWKs4BjF4z8",
    "id": 1
},
{
    "domain": ".youtube.com",
    "expirationDate": 1682213773.986048,
    "hostOnly": false,
    "httpOnly": true,
    "name": "__Secure-3PSID",
    "path": "/",
    "sameSite": "no_restriction",
    "secure": true,
    "session": false,
    "storeId": "0",
    "value": "8wfcPzIpQ-pYdy-TI_8Do0U_TbGqYzUQXZTaKV_xkTNeCn_iYpMA8bcgz7mNNZn_7N_ebw.",
    "id": 2
},
{
    "domain": ".youtube.com",
    "expirationDate": 1650677800.125055,
    "hostOnly": false,
    "httpOnly": true,
    "name": "__Secure-3PSIDCC",
    "path": "/",
    "sameSite": "no_restriction",
    "secure": true,
    "session": false,
    "storeId": "0",
    "value": "AJi4QfE85s5sejdtlbIt_-LX7NHk3ScKs8zwCE0QIa1d4Y3uQHL-bvOXDeH8si9TLZo4K1xo",
    "id": 3
},
{
    "domain": ".youtube.com",
    "expirationDate": 1682213773.986168,
    "hostOnly": false,
    "httpOnly": false,
    "name": "APISID",
    "path": "/",
    "sameSite": "unspecified",
    "secure": false,
    "session": false,
    "storeId": "0",
    "value": "x2DbKcm8DGQJcPBU/A64Jbc_uhrYfI_iX6",
    "id": 4
},
{
    "domain": ".youtube.com",
    "expirationDate": 1682213773.986097,
    "hostOnly": false,
    "httpOnly": true,
    "name": "HSID",
    "path": "/",
    "sameSite": "unspecified",
    "secure": false,
    "session": false,
    "storeId": "0",
    "value": "A0OSi3_bqOWqqAZLa",
    "id": 5
},
{
    "domain": ".youtube.com",
    "expirationDate": 1682213782.943615,
    "hostOnly": false,
    "httpOnly": true,
    "name": "LOGIN_INFO",
    "path": "/",
    "sameSite": "no_restriction",
    "secure": true,
    "session": false,
    "storeId": "0",
    "value": "AFmmF2swRQIhALOlO-Hm_cAtVZpiJxh91PQzFC7eHni_cxStM9p82Gl6AiB77QP2w-Y_FgRh9giFpesbpsRzTgbKhkIqkfwFBFucSw:QUQ3MjNmeWk0ZU1jcmpkQ2IxeV9qU0gwSVZscHphZ3Z5dUFoMV9CZ1JjZTNrUl83cWtMXzFOSEo3Ni1iT3ZaNzRjbl9GM0F1ZE10bmc1TlNXWHB6RUY0SmhrZWIwMmpzb1BLV2lGNEVuRUw1S3ppSUVSVV9vTmhsTkwxTXZwSzBWRXZVaGRrTGVxb3JWREo5YWhxckViWURiUERRUHBhbmln",
    "id": 6
},
{
    "domain": ".youtube.com",
    "expirationDate": 1682213786,
    "hostOnly": false,
    "httpOnly": false,
    "name": "PREF",
    "path": "/",
    "sameSite": "unspecified",
    "secure": true,
    "session": false,
    "storeId": "0",
    "value": "tz=Asia.Jakarta",
    "id": 7
},
{
    "domain": ".youtube.com",
    "expirationDate": 1682213773.986197,
    "hostOnly": false,
    "httpOnly": false,
    "name": "SAPISID",
    "path": "/",
    "sameSite": "unspecified",
    "secure": true,
    "session": false,
    "storeId": "0",
    "value": "5UQ-EpRF2wIjJXdN/AexYCFYWKs4BjF4z8",
    "id": 8
},
{
    "domain": ".youtube.com",
    "expirationDate": 1682213773.985952,
    "hostOnly": false,
    "httpOnly": false,
    "name": "SID",
    "path": "/",
    "sameSite": "unspecified",
    "secure": false,
    "session": false,
    "storeId": "0",
    "value": "8wfcPzIpQ-pYdy-TI_8Do0U_TbGqYzUQXZTaKV_xkTNeCn_ihbrK9qOtjahG6_2fd2i_1Q.",
    "id": 9
},
{
    "domain": ".youtube.com",
    "expirationDate": 1650677800.124964,
    "hostOnly": false,
    "httpOnly": false,
    "name": "SIDCC",
    "path": "/",
    "sameSite": "unspecified",
    "secure": false,
    "session": false,
    "storeId": "0",
    "value": "AJi4QfGotDpVAc90c6MH015r5KTlQwooWbmhmTxi9R_xYuHNwtlHmPosFKrYxbI7K6ORbnQP",
    "id": 10
},
{
    "domain": ".youtube.com",
    "expirationDate": 1682213773.986136,
    "hostOnly": false,
    "httpOnly": true,
    "name": "SSID",
    "path": "/",
    "sameSite": "unspecified",
    "secure": true,
    "session": false,
    "storeId": "0",
    "value": "AJCkcVXjzeC7QME76",
    "id": 11
},
{
    "domain": ".youtube.com",
    "expirationDate": 1634693782.943579,
    "hostOnly": false,
    "httpOnly": true,
    "name": "VISITOR_INFO1_LIVE",
    "path": "/",
    "sameSite": "no_restriction",
    "secure": true,
    "session": false,
    "storeId": "0",
    "value": "7heuO2JrgWw",
    "id": 12
},
{
    "domain": ".youtube.com",
    "hostOnly": false,
    "httpOnly": true,
    "name": "YSC",
    "path": "/",
    "sameSite": "no_restriction",
    "secure": true,
    "session": true,
    "storeId": "0",
    "value": "nSpDdXiNljo",
    "id": 13
}
]