[
{
    "domain": ".youtube.com",
    "expirationDate": 1682215643.069461,
    "hostOnly": false,
    "httpOnly": false,
    "name": "__Secure-3PAPISID",
    "path": "/",
    "sameSite": "no_restriction",
    "secure": true,
    "session": false,
    "storeId": "0",
    "value": "Z34lyn4MO3C1atHr/A-nB4ydKNWPMGc4qj",
    "id": 1
},
{
    "domain": ".youtube.com",
    "expirationDate": 1682215643.069258,
    "hostOnly": false,
    "httpOnly": true,
    "name": "__Secure-3PSID",
    "path": "/",
    "sameSite": "no_restriction",
    "secure": true,
    "session": false,
    "storeId": "0",
    "value": "8wf5-GlORu3UHwYfBL851zt-U4ASMsk4MApLnCm_rdA71SmHqAeG8ndagsYwxvBI9VPz-g.",
    "id": 2
},
{
    "domain": ".youtube.com",
    "expirationDate": 1650679682.341303,
    "hostOnly": false,
    "httpOnly": true,
    "name": "__Secure-3PSIDCC",
    "path": "/",
    "sameSite": "no_restriction",
    "secure": true,
    "session": false,
    "storeId": "0",
    "value": "AJi4QfFscQbH9DvAkR4-sWBQrjAbADuZPdG4Eo3ui_Z9oyNKUXYEr3Zd0_PDEYpGTBfJeK8pmw",
    "id": 3
},
{
    "domain": ".youtube.com",
    "expirationDate": 1682215643.069375,
    "hostOnly": false,
    "httpOnly": false,
    "name": "APISID",
    "path": "/",
    "sameSite": "unspecified",
    "secure": false,
    "session": false,
    "storeId": "0",
    "value": "h3xRuUNIxGm4iMlg/A7a66Rz9DvSJYOfdm",
    "id": 4
},
{
    "domain": ".youtube.com",
    "expirationDate": 1682215643.069304,
    "hostOnly": false,
    "httpOnly": true,
    "name": "HSID",
    "path": "/",
    "sameSite": "unspecified",
    "secure": false,
    "session": false,
    "storeId": "0",
    "value": "AgVtXLrwmrA02G290",
    "id": 5
},
{
    "domain": ".youtube.com",
    "expirationDate": 1682215660.010468,
    "hostOnly": false,
    "httpOnly": true,
    "name": "LOGIN_INFO",
    "path": "/",
    "sameSite": "no_restriction",
    "secure": true,
    "session": false,
    "storeId": "0",
    "value": "AFmmF2swRQIgKQL3EXEXNCTgasJ5ViqChXByIGdlSxrS5BmuuSIuPZQCIQDLCzEJVE0JqNYz1moWWquYZZSm_zstrbIiyGb8rYI7tA:QUQ3MjNmeHVlMDUxamF2NlpBeV9BcDdULWwxZFNpN3FQWWVlcVZiWDFJd2FLSVpUTzNSTk9RX0JwOTdkbzlzNnhRN2dDYWpmU05tM1FfaVhmT2xud3B3Z3R4ejBLSGN4UnZOeGMyZDJKWVI4eWNqUFpqRVdZZXRrck9xR2RvTVNKNFUwZVU0bHZzQVlDdGp4cGs3QlpBdUhScENrQmpDNDZB",
    "id": 6
},
{
    "domain": ".youtube.com",
    "expirationDate": 1682215665,
    "hostOnly": false,
    "httpOnly": false,
    "name": "PREF",
    "path": "/",
    "sameSite": "unspecified",
    "secure": true,
    "session": false,
    "storeId": "0",
    "value": "tz=Asia.Jakarta",
    "id": 7
},
{
    "domain": ".youtube.com",
    "expirationDate": 1682215643.069418,
    "hostOnly": false,
    "httpOnly": false,
    "name": "SAPISID",
    "path": "/",
    "sameSite": "unspecified",
    "secure": true,
    "session": false,
    "storeId": "0",
    "value": "Z34lyn4MO3C1atHr/A-nB4ydKNWPMGc4qj",
    "id": 8
},
{
    "domain": ".youtube.com",
    "expirationDate": 1682215643.069137,
    "hostOnly": false,
    "httpOnly": false,
    "name": "SID",
    "path": "/",
    "sameSite": "unspecified",
    "secure": false,
    "session": false,
    "storeId": "0",
    "value": "8wf5-GlORu3UHwYfBL851zt-U4ASMsk4MApLnCm_rdA71SmHBzXMv39TrpLHeQLdglcqiQ.",
    "id": 9
},
{
    "domain": ".youtube.com",
    "expirationDate": 1650679682.341199,
    "hostOnly": false,
    "httpOnly": false,
    "name": "SIDCC",
    "path": "/",
    "sameSite": "unspecified",
    "secure": false,
    "session": false,
    "storeId": "0",
    "value": "AJi4QfHU-JWWAmavcAM_5wNfrYLSwGFERtfdMvG8mpihjslGfEb24SaRzZdCf4pDAQaVtoOZFg",
    "id": 10
},
{
    "domain": ".youtube.com",
    "expirationDate": 1682215643.069342,
    "hostOnly": false,
    "httpOnly": true,
    "name": "SSID",
    "path": "/",
    "sameSite": "unspecified",
    "secure": true,
    "session": false,
    "storeId": "0",
    "value": "ANcCg24S5rcVeo8Um",
    "id": 11
},
{
    "domain": ".youtube.com",
    "expirationDate": 1634695660.010428,
    "hostOnly": false,
    "httpOnly": true,
    "name": "VISITOR_INFO1_LIVE",
    "path": "/",
    "sameSite": "no_restriction",
    "secure": true,
    "session": false,
    "storeId": "0",
    "value": "udBbzWPWVqg",
    "id": 12
},
{
    "domain": ".youtube.com",
    "hostOnly": false,
    "httpOnly": true,
    "name": "YSC",
    "path": "/",
    "sameSite": "no_restriction",
    "secure": true,
    "session": true,
    "storeId": "0",
    "value": "A8iWKGUmAWk",
    "id": 13
}
]