[
{
    "domain": ".youtube.com",
    "expirationDate": 1682217130.973386,
    "hostOnly": false,
    "httpOnly": false,
    "name": "__Secure-3PAPISID",
    "path": "/",
    "sameSite": "no_restriction",
    "secure": true,
    "session": false,
    "storeId": "0",
    "value": "dGQVCbB--vQ8ng20/AO2osFVFsWr0rYq8W",
    "id": 1
},
{
    "domain": ".youtube.com",
    "expirationDate": 1682217130.973172,
    "hostOnly": false,
    "httpOnly": true,
    "name": "__Secure-3PSID",
    "path": "/",
    "sameSite": "no_restriction",
    "secure": true,
    "session": false,
    "storeId": "0",
    "value": "8wdPGm2Lx0t_MZjj6h7qUFmIuWGoDDvE5qes1dCZ_XQIp-7RTeDG8ObIaig1Nj6ePZDv2Q.",
    "id": 2
},
{
    "domain": ".youtube.com",
    "expirationDate": 1650681189.082493,
    "hostOnly": false,
    "httpOnly": true,
    "name": "__Secure-3PSIDCC",
    "path": "/",
    "sameSite": "no_restriction",
    "secure": true,
    "session": false,
    "storeId": "0",
    "value": "AJi4QfGQzjKYCwqvuGj_7JUYrzm2WNy3UDfLxB5w3v_ufCip3ILQ0b-qUHEcntFK7r85qri5",
    "id": 3
},
{
    "domain": ".youtube.com",
    "expirationDate": 1682217130.973309,
    "hostOnly": false,
    "httpOnly": false,
    "name": "APISID",
    "path": "/",
    "sameSite": "unspecified",
    "secure": false,
    "session": false,
    "storeId": "0",
    "value": "oQsUiA7BQ-SN8DtQ/AOKYMUH8HWviOGFi2",
    "id": 4
},
{
    "domain": ".youtube.com",
    "expirationDate": 1682217130.973227,
    "hostOnly": false,
    "httpOnly": true,
    "name": "HSID",
    "path": "/",
    "sameSite": "unspecified",
    "secure": false,
    "session": false,
    "storeId": "0",
    "value": "AHJTqYOEdURAL9Dtf",
    "id": 5
},
{
    "domain": ".youtube.com",
    "expirationDate": 1682217134.133541,
    "hostOnly": false,
    "httpOnly": true,
    "name": "LOGIN_INFO",
    "path": "/",
    "sameSite": "no_restriction",
    "secure": true,
    "session": false,
    "storeId": "0",
    "value": "AFmmF2swRQIgDw_gxkF2Q-83YhtmEoLI7qcUqtilWAB8vAOX4iEnDAoCIQCuRsIyPKe7ZOQztMIsFlHiMkBty5Ah_vJvMzsmB4dT_A:QUQ3MjNmeXhTZWZ0eXY1WWlDdXBGOFRWNExwTWU4cEpuT2tOUkl1Mmc4SUFpUG5LVFFDLVVMaUNkcUJBRzZVZnQySElWc3VSQS1pc0RETFdqOG03OXp1aWtSOGJqSFctd3dNV0U0M1d3UEU1UzBUSGNXbl9MTUlpZW5hYnJVdFlScjVncGZjSGpoWG1Nd1hJZFFNdWRsekE3eUstWTlvV0xR",
    "id": 6
},
{
    "domain": ".youtube.com",
    "expirationDate": 1682217136,
    "hostOnly": false,
    "httpOnly": false,
    "name": "PREF",
    "path": "/",
    "sameSite": "unspecified",
    "secure": true,
    "session": false,
    "storeId": "0",
    "value": "tz=Asia.Jakarta",
    "id": 7
},
{
    "domain": ".youtube.com",
    "expirationDate": 1682217130.973349,
    "hostOnly": false,
    "httpOnly": false,
    "name": "SAPISID",
    "path": "/",
    "sameSite": "unspecified",
    "secure": true,
    "session": false,
    "storeId": "0",
    "value": "dGQVCbB--vQ8ng20/AO2osFVFsWr0rYq8W",
    "id": 8
},
{
    "domain": ".youtube.com",
    "expirationDate": 1682217130.973066,
    "hostOnly": false,
    "httpOnly": false,
    "name": "SID",
    "path": "/",
    "sameSite": "unspecified",
    "secure": false,
    "session": false,
    "storeId": "0",
    "value": "8wdPGm2Lx0t_MZjj6h7qUFmIuWGoDDvE5qes1dCZ_XQIp-7RF7GjzUmpXL6D7ijXw9pfPg.",
    "id": 9
},
{
    "domain": ".youtube.com",
    "expirationDate": 1650681189.082421,
    "hostOnly": false,
    "httpOnly": false,
    "name": "SIDCC",
    "path": "/",
    "sameSite": "unspecified",
    "secure": false,
    "session": false,
    "storeId": "0",
    "value": "AJi4QfFexmIBhIWMsabtjGiCFlGJcqs11OWFQ5B6VVTM24c8u8qYb9UmILIVck_oPRIW2v-M",
    "id": 10
},
{
    "domain": ".youtube.com",
    "expirationDate": 1682217130.973266,
    "hostOnly": false,
    "httpOnly": true,
    "name": "SSID",
    "path": "/",
    "sameSite": "unspecified",
    "secure": true,
    "session": false,
    "storeId": "0",
    "value": "Azc8eexfcCqXLccd3",
    "id": 11
},
{
    "domain": ".youtube.com",
    "expirationDate": 1634697134.133504,
    "hostOnly": false,
    "httpOnly": true,
    "name": "VISITOR_INFO1_LIVE",
    "path": "/",
    "sameSite": "no_restriction",
    "secure": true,
    "session": false,
    "storeId": "0",
    "value": "nTk7DNDPGJw",
    "id": 12
},
{
    "domain": ".youtube.com",
    "hostOnly": false,
    "httpOnly": true,
    "name": "YSC",
    "path": "/",
    "sameSite": "no_restriction",
    "secure": true,
    "session": true,
    "storeId": "0",
    "value": "iRMiv7_4Iro",
    "id": 13
}
]