[
{
    "domain": ".youtube.com",
    "expirationDate": 1682212712.730965,
    "hostOnly": false,
    "httpOnly": false,
    "name": "__Secure-3PAPISID",
    "path": "/",
    "sameSite": "no_restriction",
    "secure": true,
    "session": false,
    "storeId": "0",
    "value": "n2n6XUdtN2jpFjaB/AURXslWOzCNVx3Bt3",
    "id": 1
},
{
    "domain": ".youtube.com",
    "expirationDate": 1682212712.730826,
    "hostOnly": false,
    "httpOnly": true,
    "name": "__Secure-3PSID",
    "path": "/",
    "sameSite": "no_restriction",
    "secure": true,
    "session": false,
    "storeId": "0",
    "value": "8wcIAK-XJgRin-hj8jS__cAoY_ZDG3xo2IHO5tuG8BbNt3mZKbG2dOJKUIoB8jkrijqZeA.",
    "id": 2
},
{
    "domain": ".youtube.com",
    "expirationDate": 1650676736.318624,
    "hostOnly": false,
    "httpOnly": true,
    "name": "__Secure-3PSIDCC",
    "path": "/",
    "sameSite": "no_restriction",
    "secure": true,
    "session": false,
    "storeId": "0",
    "value": "AJi4QfGc6VWUVzS_YRq-2of2Mw5ZKTwEZ1wo2G5PYk4AKVTVlIsYk6hJCpjHvXm1lx-1ffB9",
    "id": 3
},
{
    "domain": ".youtube.com",
    "expirationDate": 1682212712.730912,
    "hostOnly": false,
    "httpOnly": false,
    "name": "APISID",
    "path": "/",
    "sameSite": "unspecified",
    "secure": false,
    "session": false,
    "storeId": "0",
    "value": "uW0a6H3IVcI09w7G/AyhqhZ0Ut2EzzIs65",
    "id": 4
},
{
    "domain": ".youtube.com",
    "expirationDate": 1682212712.73086,
    "hostOnly": false,
    "httpOnly": true,
    "name": "HSID",
    "path": "/",
    "sameSite": "unspecified",
    "secure": false,
    "session": false,
    "storeId": "0",
    "value": "A2LiPbghDxPiJ7qO1",
    "id": 5
},
{
    "domain": ".youtube.com",
    "expirationDate": 1682212720.077921,
    "hostOnly": false,
    "httpOnly": true,
    "name": "LOGIN_INFO",
    "path": "/",
    "sameSite": "no_restriction",
    "secure": true,
    "session": false,
    "storeId": "0",
    "value": "AFmmF2swRgIhAINhi0ZiTK38hv-er09YmoFRwLSNWBNIuBiJPjWCnLV0AiEAmPhsxpnc-dnhkZoPHW3ejtYKW2tisaF1HKxn9qnaOXE:QUQ3MjNmeDIyZk5Pcl9LUVRCNnRsTVpMWWRDdWZYdnQ3QTJjejF6YThiaVZob2pyT2V6ZUhyV085a1dSVGlGenZYNzB4ZnVMc193eWQzUjdPQmlXdmxmS0lQdTVBa2pNVDEteXM3bno4Zm9pemNMS3pVQlVObjBTd0NPSV9pS2xCRlJvUW5kcDFyTXd6bjh0SG1UdUEtTUdPMWRuRG41THh3",
    "id": 6
},
{
    "domain": ".youtube.com",
    "expirationDate": 1682212722,
    "hostOnly": false,
    "httpOnly": false,
    "name": "PREF",
    "path": "/",
    "sameSite": "unspecified",
    "secure": true,
    "session": false,
    "storeId": "0",
    "value": "tz=Asia.Jakarta",
    "id": 7
},
{
    "domain": ".youtube.com",
    "expirationDate": 1682212712.73094,
    "hostOnly": false,
    "httpOnly": false,
    "name": "SAPISID",
    "path": "/",
    "sameSite": "unspecified",
    "secure": true,
    "session": false,
    "storeId": "0",
    "value": "n2n6XUdtN2jpFjaB/AURXslWOzCNVx3Bt3",
    "id": 8
},
{
    "domain": ".youtube.com",
    "expirationDate": 1682212712.730744,
    "hostOnly": false,
    "httpOnly": false,
    "name": "SID",
    "path": "/",
    "sameSite": "unspecified",
    "secure": false,
    "session": false,
    "storeId": "0",
    "value": "8wcIAK-XJgRin-hj8jS__cAoY_ZDG3xo2IHO5tuG8BbNt3mZhjxpRd1FjzFv4zNL7wd02g.",
    "id": 9
},
{
    "domain": ".youtube.com",
    "expirationDate": 1650676736.318497,
    "hostOnly": false,
    "httpOnly": false,
    "name": "SIDCC",
    "path": "/",
    "sameSite": "unspecified",
    "secure": false,
    "session": false,
    "storeId": "0",
    "value": "AJi4QfGoLXIYkG69vwP7__lFYAUUvoka6wjwdo6tcKqbXEVbi_pz9lcZlCv4_2D1-OZIwDygjQ",
    "id": 10
},
{
    "domain": ".youtube.com",
    "expirationDate": 1682212712.730887,
    "hostOnly": false,
    "httpOnly": true,
    "name": "SSID",
    "path": "/",
    "sameSite": "unspecified",
    "secure": true,
    "session": false,
    "storeId": "0",
    "value": "AnLm1Hx_oekayG7vn",
    "id": 11
},
{
    "domain": ".youtube.com",
    "expirationDate": 1634692720.077878,
    "hostOnly": false,
    "httpOnly": true,
    "name": "VISITOR_INFO1_LIVE",
    "path": "/",
    "sameSite": "no_restriction",
    "secure": true,
    "session": false,
    "storeId": "0",
    "value": "OsGjcHFMgdU",
    "id": 12
},
{
    "domain": ".youtube.com",
    "hostOnly": false,
    "httpOnly": true,
    "name": "YSC",
    "path": "/",
    "sameSite": "no_restriction",
    "secure": true,
    "session": true,
    "storeId": "0",
    "value": "5v-NGhSbG4o",
    "id": 13
}
]