[
{
    "domain": ".youtube.com",
    "expirationDate": 1682212369.729123,
    "hostOnly": false,
    "httpOnly": false,
    "name": "__Secure-3PAPISID",
    "path": "/",
    "sameSite": "no_restriction",
    "secure": true,
    "session": false,
    "storeId": "0",
    "value": "QbEbxQPzAh5Fud1X/AzLq1gp13HBASBq2A",
    "id": 1
},
{
    "domain": ".youtube.com",
    "expirationDate": 1682212369.728935,
    "hostOnly": false,
    "httpOnly": true,
    "name": "__Secure-3PSID",
    "path": "/",
    "sameSite": "no_restriction",
    "secure": true,
    "session": false,
    "storeId": "0",
    "value": "8wdZIO3Wb8TmzOFJDjXUuA5F6YtG3Gm511Ag4E2rmc9L7ASplDYUw3GnGeG2XKCh7d5ofg.",
    "id": 2
},
{
    "domain": ".youtube.com",
    "expirationDate": 1650676413.426043,
    "hostOnly": false,
    "httpOnly": true,
    "name": "__Secure-3PSIDCC",
    "path": "/",
    "sameSite": "no_restriction",
    "secure": true,
    "session": false,
    "storeId": "0",
    "value": "AJi4QfGHXGi6cc0FHODeCgOCglbhKBFz_rSPg4Obf0_V-KlDXFFDvULR2ounFp8Wn7uc4D41",
    "id": 3
},
{
    "domain": ".youtube.com",
    "expirationDate": 1682212369.729046,
    "hostOnly": false,
    "httpOnly": false,
    "name": "APISID",
    "path": "/",
    "sameSite": "unspecified",
    "secure": false,
    "session": false,
    "storeId": "0",
    "value": "jYWHJ5NkLug6A691/A6tCVhFxh3G9qEq2s",
    "id": 4
},
{
    "domain": ".youtube.com",
    "expirationDate": 1682212369.728983,
    "hostOnly": false,
    "httpOnly": true,
    "name": "HSID",
    "path": "/",
    "sameSite": "unspecified",
    "secure": false,
    "session": false,
    "storeId": "0",
    "value": "APr1e8-RbuUTh1c73",
    "id": 5
},
{
    "domain": ".youtube.com",
    "expirationDate": 1682212402.151221,
    "hostOnly": false,
    "httpOnly": true,
    "name": "LOGIN_INFO",
    "path": "/",
    "sameSite": "no_restriction",
    "secure": true,
    "session": false,
    "storeId": "0",
    "value": "AFmmF2swRQIgAVGYsuaiS4809d4b1Z1o1Jjnr2swfZ2uB69HSdGatwMCIQDIbS9HyhVN6-_Nydm7o31FsdMW53XfsBdbHrOcFnFMRQ:QUQ3MjNmdzB2OERSdUlPb05LUGhTZnlmYU5PbTdrNjh2LTRPWl9GWERUVldMM09Od3JUankwMWhNdzBrNTVEYXBXaFdQcUJvLW1jM1pKQlRXamNVTjFjTWV5azJFN1BIQ0JMWTdWelhXOFR6d1FlYm1Kanh4Rk9LR2YyVmhQRzhSMi11c3RfSnVrOEVQNWlDRXpZSXdLT2Z4a1oxcDlnelNB",
    "id": 6
},
{
    "domain": ".youtube.com",
    "expirationDate": 1682212404,
    "hostOnly": false,
    "httpOnly": false,
    "name": "PREF",
    "path": "/",
    "sameSite": "unspecified",
    "secure": true,
    "session": false,
    "storeId": "0",
    "value": "tz=Asia.Jakarta",
    "id": 7
},
{
    "domain": ".youtube.com",
    "expirationDate": 1682212369.729076,
    "hostOnly": false,
    "httpOnly": false,
    "name": "SAPISID",
    "path": "/",
    "sameSite": "unspecified",
    "secure": true,
    "session": false,
    "storeId": "0",
    "value": "QbEbxQPzAh5Fud1X/AzLq1gp13HBASBq2A",
    "id": 8
},
{
    "domain": ".youtube.com",
    "expirationDate": 1682212369.72885,
    "hostOnly": false,
    "httpOnly": false,
    "name": "SID",
    "path": "/",
    "sameSite": "unspecified",
    "secure": false,
    "session": false,
    "storeId": "0",
    "value": "8wdZIO3Wb8TmzOFJDjXUuA5F6YtG3Gm511Ag4E2rmc9L7ASpbCuVqTDzlAcQr30N2Zwm5A.",
    "id": 9
},
{
    "domain": ".youtube.com",
    "expirationDate": 1650676413.42597,
    "hostOnly": false,
    "httpOnly": false,
    "name": "SIDCC",
    "path": "/",
    "sameSite": "unspecified",
    "secure": false,
    "session": false,
    "storeId": "0",
    "value": "AJi4QfGK-d6xLKmS9mJyLKKLQbLFX1o7S4kvyLguFrFATLbJMi8g_wDdB5egFTnwaJ9ZnaRX",
    "id": 10
},
{
    "domain": ".youtube.com",
    "expirationDate": 1682212369.729018,
    "hostOnly": false,
    "httpOnly": true,
    "name": "SSID",
    "path": "/",
    "sameSite": "unspecified",
    "secure": true,
    "session": false,
    "storeId": "0",
    "value": "Ahzgs-waDE4pQxlEu",
    "id": 11
},
{
    "domain": ".youtube.com",
    "expirationDate": 1634692402.15119,
    "hostOnly": false,
    "httpOnly": true,
    "name": "VISITOR_INFO1_LIVE",
    "path": "/",
    "sameSite": "no_restriction",
    "secure": true,
    "session": false,
    "storeId": "0",
    "value": "zfWwubZLR3w",
    "id": 12
},
{
    "domain": ".youtube.com",
    "hostOnly": false,
    "httpOnly": true,
    "name": "YSC",
    "path": "/",
    "sameSite": "no_restriction",
    "secure": true,
    "session": true,
    "storeId": "0",
    "value": "_1MkC28DjYo",
    "id": 13
}
]